<?xml version="1.0" encoding="utf-8"?>
<!-- Generator: Adobe Illustrator 14.0.0, SVG Export Plug-In . SVG Version: 6.00 Build 43363)  -->
<!DOCTYPE svg PUBLIC "-//W3C//DTD SVG 1.1//EN" "http://www.w3.org/Graphics/SVG/1.1/DTD/svg11.dtd">
<svg version="1.1" id="Calque_1" xmlns="http://www.w3.org/2000/svg" xmlns:xlink="http://www.w3.org/1999/xlink" x="0px" y="0px"
	 width="800px" height="800px" viewBox="0 0 800 800" enable-background="new 0 0 800 800" xml:space="preserve">
<path fill-rule="evenodd" clip-rule="evenodd" fill="#FFFFFF" d="M374.861,38.577c11.82,14.084,4.591,47.218,27.429,50.286
	c20.665-5.239,14.355-37.454,27.429-50.286c14.304,0.934,33.56-3.083,41.143,4.571c3.037,21.344-9.301,58.063,13.715,59.429
	c21.706-7.246,21.009-36.896,41.143-45.714c14.048,1.19,20.559,9.918,32,13.714c1.336,24.193-7.932,37.782-9.143,59.429
	c31.34,16.586,33.914-24.132,59.429-27.429c13.642,0.073,15.543,11.886,27.429,13.714c2.888,31.84-17.147,40.758-18.286,68.572
	c25.125,14.246,36.064-20.577,68.572-13.714c40.374,34.069-26.723,50.976-13.715,82.286c12.218,8.936,34.577-10.963,59.43-4.571
	c4.375,9.338,9.338,18.09,13.714,27.429c-3.687,25.266-35.31,22.595-45.715,41.143c-2.992,28.898,36.592,15.218,59.43,18.286
	c7.654,7.583,3.637,26.839,4.571,41.143c-13.722,12.183-42.401,9.409-54.857,22.857c0.371,28.581,42.115,15.79,54.857,32
	c-1.241,15.521,3.539,37.062-4.571,45.714c-21.344,3.037-58.063-9.301-59.43,13.715c5.226,23.727,38.117,19.788,45.715,41.143
	c-1.19,14.048-9.918,20.559-13.714,32c-25.501,2.644-40.431-5.284-59.43-9.143c-16.9,35.938,55.906,51.676,13.715,86.857
	c-31.81,4.381-36.549-18.309-64-18.285c-14.246,25.124,20.576,36.063,13.714,68.571c-9.512,2.679-14.774,9.606-22.857,13.715
	c-28.193,1.133-33.901-40.705-59.429-27.429c-11.435,14.717,10.984,34.556,4.571,59.429c-32.726,31.267-54.355-6.774-68.571-32
	c-28.898-2.993-15.219,36.591-18.286,59.429c-7.583,7.654-26.839,3.637-41.143,4.571c-13.234-11.147-8.574-40.188-22.857-50.286
	c-30.132-2.702-16.927,37.931-32,50.286c-12.19,0-24.381,0-36.571,0c-9.641-17.788-1.183-53.675-18.286-64
	c-23.727,5.225-19.789,38.116-41.143,45.714c-17.259,2.021-21.461-9.015-32-13.714c-6.123-23.083,13.708-43.932,0-59.429
	c-24.293-4.432-59.073,56.486-82.286,4.571c2.81-23.096,23.397-28.413,22.857-54.857c-25.125-14.246-36.064,20.577-68.572,13.714
	c-1.345-9.321-12.37-8.964-13.714-18.285c-4.443-31.504,36.689-37.917,27.429-59.43c-7.748-18.409-35.007,6.425-59.429,0
	c-34.669-30.973,9.713-54.545,32-68.571c-2.419-3.677-4.77-7.421-4.572-13.715c-9.318-10.49-37.964-1.654-54.857-4.571
	c-5.409-11.353-6.619-26.905-9.143-41.143c11.683-17.271,47.68-10.225,54.857-32c-7.177-21.776-43.175-14.73-54.857-32
	c1.125-14.113,4.634-25.842,9.143-36.572c18.286,0,36.572,0,54.857,0c-0.393-6.488-0.755-12.945,4.572-13.714
	c-6.775-22.178-38.487-19.418-45.715-41.143c-2.021-17.259,9.015-21.461,13.714-32c24.392-4.214,45.931,12.402,59.429,4.571
	c11.087-24.682-23.442-31.307-27.429-54.857c-0.203-13.917,9.652-17.776,13.714-27.429c31.81-4.381,36.549,18.309,64,18.286
	c13.017-25.268-19.326-40.471-13.714-73.144c28.358-32.965,49.176,7.685,73.144,18.286c26.169-8.771-2.75-34.142,4.571-64
	c33.915-34.855,50.459,12.27,68.572,32c23.395-2.51,17.074-34.736,18.286-59.429C341.301,35.493,360.557,39.511,374.861,38.577z
	 M297.146,226.006c16.813,30.425,35.353,59.124,64,77.715c5.852-22.323-8.293-60.899-4.571-96
	C329.012,206.062,319.089,222.044,297.146,226.006z M443.433,303.721c25.919-21.319,47.153-47.324,64-77.715
	c-21.942-3.961-31.865-19.944-59.429-18.286C449.375,240.47,434.608,278.425,443.433,303.721z M201.146,358.578
	c32.617-5.803,80.657,18.676,96,0c-10.096-15.872-46.972-44.41-73.144-59.429C217.98,320.556,205.906,335.91,201.146,358.578z
	 M502.861,363.149c23.41,6.939,62.16-7.033,96.001-4.571c-2.982-25.971-9.944-47.961-27.429-59.429
	C551.728,323.634,518.766,334.863,502.861,363.149z M402.29,445.436c46.763-0.727,57.788-95.36-9.143-77.714
	C339.35,381.903,367.819,445.972,402.29,445.436z M201.146,454.578c5.723,21.706,16.139,38.719,22.857,59.43
	c27.857-16.83,67.868-44.223,73.144-68.572C277.076,442.224,226.214,447.574,201.146,454.578z M502.861,445.436
	c16.239,30.999,46.021,48.455,73.144,68.572c13.151-15.801,19.356-38.549,22.857-64.001
	C565.021,452.469,526.271,438.497,502.861,445.436z M297.146,587.15c21.943,3.962,31.865,19.944,59.429,18.286
	c-8.182-35.17,21.622-86.229-4.571-96.001C338.372,539.995,308.581,554.395,297.146,587.15z M452.575,610.008
	c17.001-8.904,35.885-15.926,54.857-22.857c-17.589-29.648-38.124-56.352-64-77.715C436.904,535.31,446.255,582.027,452.575,610.008
	z"/>
</svg>
